dump.vcd
$date
Sun Mar  8 01:48:22 2026
$end
$version
Riviera-PRO Version 2025.04.139.9738
$end
$timescale
1 ps
$end

$scope module tb $end
$var reg 1 ! clk $end

$scope module vif $end
$var reg 1 " rst $end
$var reg 1 # enable $end
$var reg 1 $ up_down $end
$var reg 4 % count [3:0] $end
$upscope $end


$scope module dut $end
$var wire 1 & clk $end
$var wire 1 ' rst $end
$var wire 1 ( enable $end
$var wire 1 ) up_down $end
$var reg 4 * count [3:0] $end
$upscope $end

$upscope $end

$enddefinitions $end
$dumpvars
0!
1"
0#
1$
b0 %
0&
1'
0(
1)
b0 *
$end
#5
1!
1&
#10
0!
0&
1#
1(
#15
1!
1&
#20
0"
0!
0&
0'
0#
0(
#25
1!
1&
#30
0!
0&
#35
1!
1&
#40
0!
0&
1#
1(
#45
1!
1&
b1 *
b1 %
#50
0!
0&
0#
0(
#55
1!
1&
#60
0!
0&
#65
1!
1&
#70
0!
0&
1#
1(
#75
1!
1&
b10 *
b10 %
#80
0!
0&
#85
1!
1&
b11 *
b11 %
#90
0!
0&
#95
1!
1&
b100 *
b100 %
#100
0!
0&
#105
1!
1&
b101 *
b101 %
#110
0!
0&
#115
1!
1&
b110 *
b110 %
#120
0!
0&
0$
0)
#125
1!
1&
b101 *
b101 %
#130
0!
0&
#135
1!
1&
b100 *
b100 %
#140
0!
0&
0#
0(
#145
1!
1&
#150
0!
0&
#155
1!
1&
#160
0!
0&
1#
1$
1)
1(
#165
1!
1&
b101 *
b101 %
#170
0!
0&
0#
0$
0)
0(
#175
1!
1&
#180
0!
0&
1#
1(
#185
1!
1&
b100 *
b100 %
#190
0!
0&
0#
1$
1)
0(
#195
1!
1&
#200
0!
0&
1#
0$
0)
1(
#205
1!
1&
b11 *
b11 %
#210
0!
0&
#215
1!
1&
b10 *
b10 %
#220
0!
0&
#225
1!
1&
b1 *
b1 %
#230
0!
0&
0#
1$
1)
0(
#235
1!
1&
#240
0!
0&
#245
1!
1&
#250
0!
0&
1#
1(
#255
1!
1&
b10 *
b10 %
#260
0!
0&
0$
0)
#265
1!
1&
b1 *
b1 %
#270
0!
0&
1$
1)
#275
1!
1&
b10 *
b10 %
#280
0!
0&
#285
1!
1&
b11 *
b11 %
#290
0!
0&
#295
1!
1&
b100 *
b100 %
#300
0!
0&
0#
0$
0)
0(
#305
1!
1&
#310
0!
0&
#315
1!
1&
#320
0!
0&
1$
1)
#325
1!
1&
#330
0!
0&
0$
0)
#335
1!
1&
#340
0!
0&
1$
1)
#345
1!
1&
#350
0!
0&
0$
0)
#355
1!
1&
#360
0!
0&
1$
1)
#365
1!
1&
#370
0!
0&
0$
0)
#375
1!
1&
#380
0!
0&
1#
1$
1)
1(
#385
1!
1&
b101 *
b101 %
#390
0!
0&
0#
0$
0)
0(
#395
1!
1&
#400
0!
0&
1#
1(
#405
1!
1&
b100 *
b100 %
#410
0!
0&
1$
1)
#415
1!
1&
b101 *
b101 %
#420
0!
0&
#425
1!
1&
b110 *
b110 %
#430
0!
0&
0#
0$
0)
0(
#435
1!
1&
#440
0!
0&
1#
1(
#445
1!
1&
b101 *
b101 %
#450
0!
0&
0#
1$
1)
0(
#455
1!
1&
#460
0!
0&
#465
1!
1&
#470
0!
0&
#475
1!
1&
#480
0!
0&
#485
1!
1&
#490
0!
0&
#495
1!
1&
#500
0!
0&
1#
1(
#505
1!
1&
b110 *
b110 %
#510
0!
0&
#515
1!
1&
b111 *
b111 %
#520
0!
0&
#525
1!
1&
b1000 *
b1000 %
#530
0!
0&
#535
1!
1&
b1001 *
b1001 %
#540
0!
0&
#545
1!
1&
b1010 *
b1010 %
#550
0!
0&
0$
0)
#555
1!
1&
b1001 *
b1001 %
#560
0!
0&
1$
1)
#565
1!
1&
b1010 *
b1010 %
#570
0!
0&
0$
0)
#575
1!
1&
b1001 *
b1001 %
#580
0!
0&
0#
0(
#585
1!
1&
#590
0!
0&
1#
1(
#595
1!
1&
b1000 *
b1000 %
#600
0!
0&
1$
1)
#605
1!
1&
b1001 *
b1001 %
#610
0!
0&
0$
0)
#615
1!
1&
b1000 *
b1000 %
#620
0!
0&
1$
1)
#625
1!
1&
b1001 *
b1001 %
#630
0!
0&
#635
1!
1&
b1010 *
b1010 %
#640
0!
0&
0#
0$
0)
0(
#645
1!
1&
#650
0!
0&
1#
1$
1)
1(
#655
1!
1&
b1011 *
b1011 %
#660
0!
0&
0$
0)
#665
1!
1&
b1010 *
b1010 %
#670
0!
0&
#675
1!
1&
b1001 *
b1001 %
#680
0!
0&
1$
1)
#685
1!
1&
b1010 *
b1010 %
#690
0!
0&
0#
0$
0)
0(
#695
1!
1&
#700
0!
0&
1#
1(
#705
1!
1&
b1001 *
b1001 %
#710
0!
0&
0#
1$
1)
0(
#715
1!
1&
#720
0!
0&
#725
1!
1&
#730
0!
0&
1#
0$
0)
1(
#735
1!
1&
b1000 *
b1000 %
#740
0!
0&
#745
1!
1&
b111 *
b111 %
#750
0!
0&
0#
0(
#755
1!
1&
#760
0!
0&
1#
1(
#765
1!
1&
b110 *
b110 %
#770
0!
0&
1$
1)
#775
1!
1&
b111 *
b111 %
#780
0!
0&
0#
0(
#785
1!
1&
#790
0!
0&
1#
1(
#795
1!
1&
b1000 *
b1000 %
#800
0!
0&
0#
0(
#805
1!
1&
#810
0!
0&
0$
0)
#815
1!
1&
#820
0!
0&
1#
1$
1)
1(
#825
1!
1&
b1001 *
b1001 %
#830
0!
0&
0#
0(
#835
1!
1&
#840
0!
0&
#845
1!
1&
#850
0!
0&
1#
0$
0)
1(
#855
1!
1&
b1000 *
b1000 %
#860
0!
0&
#865
1!
1&
b111 *
b111 %
#870
0!
0&
#875
1!
1&
b110 *
b110 %
#880
0!
0&
0#
0(
#885
1!
1&
#890
0!
0&
1#
1(
#895
1!
1&
b101 *
b101 %
#900
0!
0&
0#
0(
#905
1!
1&
#910
0!
0&
#915
1!
1&
#920
0!
0&
1#
1$
1)
1(
#925
1!
1&
b110 *
b110 %
#930
0!
0&
0#
0$
0)
0(
#935
1!
1&
#940
0!
0&
1#
1$
1)
1(
#945
1!
1&
b111 *
b111 %
#950
0!
0&
0$
0)
#955
1!
1&
b110 *
b110 %
#960
0!
0&
1$
1)
#965
1!
1&
b111 *
b111 %
#970
0!
0&
0#
0$
0)
0(
#975
1!
1&
#980
0!
0&
1$
1)
#985
1!
1&
#990
0!
0&
0$
0)
#995
1!
1&
#1000
0!
0&
1$
1)
#1005
1!
1&
#1010
0!
0&
1#
0$
0)
1(
#1015
1!
1&
b110 *
b110 %
#1020
0!
0&
#1025
1!
1&
b101 *
b101 %
#1030
0!
0&
0#
1$
1)
0(
#1035
1!
1&
#1040
0!
0&
0$
0)
#1045
1!
1&
#1050
0!
0&
#1055
1!
1&
#1060
0!
0&
#1065
1!
1&
#1070
0!
0&
#1075
1!
1&
#1080
0!
0&
1$
1)
#1085
1!
1&
#1090
0!
0&
#1095
1!
1&
#1100
0!
0&
0$
0)
#1105
1!
1&
#1110
0!
0&
1#
1$
1)
1(
#1115
1!
1&
b110 *
b110 %
#1120
0!
0&
0#
0(
#1125
1!
1&
#1130
0!
0&
#1135
1!
1&
#1140
0!
0&
1#
0$
0)
1(
#1145
1!
1&
b101 *
b101 %
#1150
0!
0&
0#
1$
1)
0(
#1155
1!
1&
#1160
0!
0&
1#
0$
0)
1(
#1165
1!
1&
b100 *
b100 %
#1170
0!
0&
0#
0(
#1175
1!
1&
#1180
0!
0&
#1185
1!
1&
#1190
0!
0&
1#
1$
1)
1(
#1195
1!
1&
b101 *
b101 %
#1200
0!
0&
0#
0(
#1205
1!
1&
#1210
0!
0&
#1215
1!
1&
#1220
0!
0&
1#
0$
0)
1(
#1225
1!
1&
b100 *
b100 %
#1230
0!
0&
0#
0(
#1235
1!
1&
#1240
0!
0&
#1245
1!
1&
#1250
0!
0&
1#
1$
1)
1(
#1255
1!
1&
b101 *
b101 %
#1260
0!
0&
0$
0)
#1265
1!
1&
b100 *
b100 %
#1270
0!
0&
0#
1$
1)
0(
#1275
1!
1&
#1280
0!
0&
0$
0)
#1285
1!
1&
#1290
0!
0&
#1295
1!
1&
#1300
0!
0&
1#
1(
#1305
1!
1&
b11 *
b11 %
#1310
0!
0&
1$
1)
#1315
1!
1&
b100 *
b100 %
#1320
0!
0&
0#
0(
#1325
1!
1&
#1330
0!
0&
1#
1(
#1335
1!
1&
b101 *
b101 %
#1340
0!
0&
#1345
1!
1&
b110 *
b110 %
#1350
0!
0&
#1355
1!
1&
b111 *
b111 %
#1360
0!
0&
0#
0$
0)
0(
#1365
1!
1&
#1370
0!
0&
1$
1)
#1375
1!
1&
#1380
0!
0&
0$
0)
#1385
1!
1&
#1390
0!
0&
#1395
1!
1&
#1400
0!
0&
1#
1(
#1405
1!
1&
b110 *
b110 %
#1410
0!
0&
0#
0(
#1415
1!
1&
#1420
0!
0&
1$
1)
#1425
1!
1&
#1430
0!
0&
1#
1(
#1435
1!
1&
b111 *
b111 %
#1440
0!
0&
0$
0)
#1445
1!
1&
b110 *
b110 %
#1450
0!
0&
0#
0(
#1455
1!
1&
#1460
0!
0&
1$
1)
#1465
1!
1&
#1470
0!
0&
#1475
1!
1&
#1480
0!
0&
0$
0)
#1485
1!
1&
#1490
0!
0&
1#
1$
1)
1(
#1495
1!
1&
b111 *
b111 %
#1500
0!
0&
#1505
1!
1&
b1000 *
b1000 %
#1510
0!
0&
0#
0$
0)
0(
#1515
1!
1&
#1520
0!
0&
1#
1$
1)
1(
#1525
1!
1&
b1001 *
b1001 %
#1530
0!
0&
#1535
1!
1&
b1010 *
b1010 %
#1540
0!
0&
0#
0$
0)
0(
#1545
1!
1&
#1550
0!
0&
1#
1(
#1555
1!
1&
b1001 *
b1001 %
#1560
0!
0&
0#
0(
#1565
1!
1&
#1570
0!
0&
1$
1)
#1575
1!
1&
#1580
0!
0&
1#
1(
#1585
1!
1&
b1010 *
b1010 %
#1590
0!
0&
0#
0$
0)
0(
#1595
1!
1&
#1600
0!
0&
#1605
1!
1&
#1610
0!
0&
#1615
1!
1&
#1620
0!
0&
1$
1)
#1625
1!
1&
#1630
0!
0&
1#
0$
0)
1(
#1635
1!
1&
b1001 *
b1001 %
#1640
0!
0&
0#
1$
1)
0(
#1645
1!
1&
#1650
0!
0&
1#
0$
0)
1(
#1655
1!
1&
b1000 *
b1000 %
#1660
0!
0&
#1665
1!
1&
b111 *
b111 %
#1670
0!
0&
#1675
1!
1&
b110 *
b110 %
#1680
0!
0&
1$
1)
#1685
1!
1&
b111 *
b111 %
#1690
0!
0&
#1695
1!
1&
b1000 *
b1000 %
#1700
0!
0&
0#
0(
#1705
1!
1&
#1710
0!
0&
1#
1(
#1715
1!
1&
b1001 *
b1001 %
#1720
0!
0&
0#
0$
0)
0(
#1725
1!
1&
#1730
0!
0&
1$
1)
#1735
1!
1&
#1740
0!
0&
1#
1(
#1745
1!
1&
b1010 *
b1010 %
#1750
0!
0&
0#
0$
0)
0(
#1755
1!
1&
#1760
0!
0&
#1765
1!
1&
#1770
0!
0&
1#
1(
#1775
1!
1&
b1001 *
b1001 %
#1780
0!
0&
#1785
1!
1&
b1000 *
b1000 %
#1790
0!
0&
0#
0(
#1795
1!
1&
#1800
0!
0&
1#
1$
1)
1(
#1805
1!
1&
b1001 *
b1001 %
#1810
0!
0&
0#
0$
0)
0(
#1815
1!
1&
#1820
0!
0&
1$
1)
#1825
1!
1&
#1830
0!
0&
#1835
1!
1&
#1840
0!
0&
1#
0$
0)
1(
#1845
1!
1&
b1000 *
b1000 %
#1850
0!
0&
0#
0(
#1855
1!
1&
#1860
0!
0&
#1865
1!
1&
#1870
0!
0&
1$
1)
#1875
1!
1&
#1880
0!
0&
0$
0)
#1885
1!
1&
#1890
0!
0&
1#
1$
1)
1(
#1895
1!
1&
b1001 *
b1001 %
#1900
0!
0&
0$
0)
#1905
1!
1&
b1000 *
b1000 %
#1910
0!
0&
0#
1$
1)
0(
#1915
1!
1&
#1920
0!
0&
0$
0)
#1925
1!
1&
#1930
0!
0&
#1935
1!
1&
#1940
0!
0&
1#
1$
1)
1(
#1945
1!
1&
b1001 *
b1001 %
#1950
0!
0&
0#
0$
0)
0(
#1955
1!
1&
#1960
0!
0&
#1965
1!
1&
#1970
0!
0&
1#
1(
#1975
1!
1&
b1000 *
b1000 %
#1980
0!
0&
0#
1$
1)
0(
#1985
1!
1&
#1990
0!
0&
#1995
1!
1&
#2000
0!
0&
#2005
1!
1&
#2010
0!
0&
1#
1(
#2015
1!
1&
b1001 *
b1001 %
#2020
0!
0&
#2025
1!
1&
b1010 *
b1010 %
#2030
0!
0&
0#
0(
#2035
1!
1&
#2040
0!
0&
0$
0)
#2045
1!
1&
#2050
0!
0&
1$
1)
#2055
1!
1&
#2060
0!
0&
1#
0$
0)
1(
#2065
1!
1&
b1001 *
b1001 %
#2070
0!
0&
0#
1$
1)
0(
#2075
1!
1&
#2080
0!
0&
1#
0$
0)
1(
#2085
1!
1&
b1000 *
b1000 %
#2090
0!
0&
0#
0(
#2095
1!
1&
#2100
0!
0&
1#
1$
1)
1(
#2105
1!
1&
b1001 *
b1001 %
#2110
0!
0&
0#
0$
0)
0(
#2115
1!
1&
#2120
0!
0&
1#
1$
1)
1(
#2125
1!
1&
b1010 *
b1010 %
#2130
0!
0&
#2135
1!
1&
b1011 *
b1011 %
#2140
0!
0&
0#
0(
#2145
1!
1&
#2150
0!
0&
0$
0)
#2155
1!
1&
#2160
0!
0&
1#
1(
#2165
1!
1&
b1010 *
b1010 %
#2170
0!
0&
1$
1)
#2175
1!
1&
b1011 *
b1011 %
#2180
0!
0&
0#
0(
#2185
1!
1&
#2190
0!
0&
#2195
1!
1&
#2200
0!
0&
1#
0$
0)
1(
#2205
1!
1&
b1010 *
b1010 %
#2210
0!
0&
0#
1$
1)
0(
#2215
1!
1&
#2220
0!
0&
#2225
1!
1&
#2230
0!
0&
1#
0$
0)
1(
#2235
1!
1&
b1001 *
b1001 %
#2240
0!
0&
0#
0(
#2245
1!
1&
#2250
0!
0&
1$
1)
#2255
1!
1&
#2260
0!
0&
0$
0)
#2265
1!
1&
#2270
0!
0&
1#
1(
#2275
1!
1&
b1000 *
b1000 %
#2280
0!
0&
1$
1)
#2285
1!
1&
b1001 *
b1001 %
#2290
0!
0&
0#
0$
0)
0(
#2295
1!
1&
#2300
0!
0&
1#
1$
1)
1(
#2305
1!
1&
b1010 *
b1010 %
#2310
0!
0&
0#
0$
0)
0(
#2315
1!
1&
#2320
0!
0&
1#
1$
1)
1(
#2325
1!
1&
b1011 *
b1011 %
#2330
0!
0&
#2335
1!
1&
b1100 *
b1100 %
#2340
0!
0&
0$
0)
#2345
1!
1&
b1011 *
b1011 %
#2350
0!
0&
0#
1$
1)
0(
#2355
1!
1&
#2360
0!
0&
1#
0$
0)
1(
#2365
1!
1&
b1010 *
b1010 %
#2370
0!
0&
0#
0(
#2375
1!
1&
#2380
0!
0&
1$
1)
#2385
1!
1&
#2390
0!
0&
#2395
1!
1&
#2400
0!
0&
#2405
1!
1&
#2410
0!
0&
1#
1(
#2415
1!
1&
b1011 *
b1011 %
#2420
0!
0&
0$
0)
#2425
1!
1&
b1010 *
b1010 %
#2430
0!
0&
1$
1)
#2435
1!
1&
b1011 *
b1011 %
#2440
0!
0&
0#
0$
0)
0(
#2445
1!
1&
#2450
0!
0&
1$
1)
#2455
1!
1&
#2460
0!
0&
1#
1(
#2465
1!
1&
b1100 *
b1100 %
#2470
0!
0&
0#
0$
0)
0(
#2475
1!
1&
#2480
0!
0&
1#
1$
1)
1(
#2485
1!
1&
b1101 *
b1101 %
#2490
0!
0&
0#
0$
0)
0(
#2495
1!
1&
#2500
0!
0&
#2505
1!
1&
#2510
0!
0&
1#
1(
#2515
1!
1&
b1100 *
b1100 %
#2520
0!
0&
#2525
1!
1&
b1011 *
b1011 %
#2530
0!
0&
1$
1)
#2535
1!
1&
b1100 *
b1100 %
#2540
0!
0&
0$
0)
#2545
1!
1&
b1011 *
b1011 %
#2550
0!
0&
1$
1)
#2555
1!
1&
b1100 *
b1100 %
#2560
0!
0&
0#
0$
0)
0(
#2565
1!
1&
#2570
0!
0&
1$
1)
#2575
1!
1&
#2580
0!
0&
#2585
1!
1&
#2590
0!
0&
1#
1(
#2595
1!
1&
b1101 *
b1101 %
#2600
0!
0&
0$
0)
#2605
1!
1&
b1100 *
b1100 %
#2610
0!
0&
0#
0(
#2615
1!
1&
#2620
0!
0&
1#
1$
1)
1(
#2625
1!
1&
b1101 *
b1101 %
#2630
0!
0&
0#
0$
0)
0(
#2635
1!
1&
#2640
0!
0&
1#
1$
1)
1(
#2645
1!
1&
b1110 *
b1110 %
#2650
0!
0&
0$
0)
#2655
1!
1&
b1101 *
b1101 %
#2660
0!
0&
1$
1)
#2665
1!
1&
b1110 *
b1110 %
#2670
0!
0&
#2675
1!
1&
b1111 *
b1111 %
#2680
0!
0&
#2685
1!
1&
b0 *
b0 %
#2690
0!
0&
0#
0(
#2695
1!
1&
#2700
0!
0&
1#
0$
0)
1(
#2705
1!
1&
b1111 *
b1111 %
#2710
0!
0&
0#
1$
1)
0(
#2715
1!
1&
#2720
0!
0&
1#
0$
0)
1(
#2725
1!
1&
b1110 *
b1110 %
#2730
0!
0&
#2735
1!
1&
b1101 *
b1101 %
#2740
0!
0&
0#
0(
#2745
1!
1&
#2750
0!
0&
1#
1(
#2755
1!
1&
b1100 *
b1100 %
#2760
0!
0&
0#
1$
1)
0(
#2765
1!
1&
#2770
0!
0&
#2775
1!
1&
#2780
0!
0&
#2785
1!
1&
#2790
0!
0&
1#
0$
0)
1(
#2795
1!
1&
b1011 *
b1011 %
#2800
0!
0&
1$
1)
#2805
1!
1&
b1100 *
b1100 %
#2810
0!
0&
0#
0$
0)
0(
#2815
1!
1&
#2820
0!
0&
1#
1(
#2825
1!
1&
b1011 *
b1011 %
#2830
0!
0&
1$
1)
#2835
1!
1&
b1100 *
b1100 %
#2840
0!
0&
0#
0$
0)
0(
#2845
1!
1&
#2850
0!
0&
1#
1(
#2855
1!
1&
b1011 *
b1011 %
#2860
0!
0&
0#
1$
1)
0(
#2865
1!
1&
#2870
0!
0&
1#
1(
#2875
1!
1&
b1100 *
b1100 %
#2880
0!
0&
0$
0)
#2885
1!
1&
b1011 *
b1011 %
#2890
0!
0&
#2895
1!
1&
b1010 *
b1010 %
#2900
0!
0&
#2905
1!
1&
b1001 *
b1001 %
#2910
0!
0&
0#
1$
1)
0(
#2915
1!
1&
#2920
0!
0&
1#
0$
0)
1(
#2925
1!
1&
b1000 *
b1000 %
#2930
0!
0&
1$
1)
#2935
1!
1&
b1001 *
b1001 %
#2940
0!
0&
#2945
1!
1&
b1010 *
b1010 %
#2950
0!
0&
0$
0)
#2955
1!
1&
b1001 *
b1001 %
#2960
0!
0&
#2965
1!
1&
b1000 *
b1000 %
#2970
0!
0&
0#
1$
1)
0(
#2975
1!
1&
#2980
0!
0&
1#
0$
0)
1(
#2985
1!
1&
b111 *
b111 %
#2990
0!
0&
#2995
1!
1&
b110 *
b110 %
#3000
0!
0&
0#
0(
#3005
1!
1&
#3010
0!
0&
1$
1)
#3015
1!
1&
#3020
0!
0&
1#
0$
0)
1(
#3025
1!
1&
b101 *
b101 %
#3030
0!
0&
0#
0(
#3035
1!
1&
#3040
0!
0&
#3045
1!
1&
#3050
0!
0&
1$
1)
#3055
1!
1&
#3060
0!
0&
1#
0$
0)
1(
#3065
1!
1&
b100 *
b100 %
#3070
0!
0&
0#
1$
1)
0(
#3075
1!
1&
#3080
0!
0&
0$
0)
#3085
1!
1&
#3090
0!
0&
1#
1$
1)
1(
#3095
1!
1&
b101 *
b101 %
#3100
0!
0&
0#
0$
0)
0(
#3105
1!
1&
#3110
0!
0&
1#
1$
1)
1(
#3115
1!
1&
b110 *
b110 %
#3120
0!
0&
#3125
1!
1&
b111 *
b111 %
#3130
0!
0&
#3135
1!
1&
b1000 *
b1000 %
#3140
0!
0&
0$
0)
#3145
1!
1&
b111 *
b111 %
#3150
0!
0&
#3155
1!
1&
b110 *
b110 %
#3160
0!
0&
0#
1$
1)
0(
#3165
1!
1&
#3170
0!
0&
1#
0$
0)
1(
#3175
1!
1&
b101 *
b101 %
#3180
0!
0&
0#
0(
#3185
1!
1&
#3190
0!
0&
1#
1(
#3195
1!
1&
b100 *
b100 %
#3200
0!
0&
1$
1)
#3205
1!
1&
b101 *
b101 %
#3210
0!
0&
0#
0$
0)
0(
#3215
1!
1&
#3220
0!
0&
1$
1)
#3225
1!
1&
#3230
0!
0&
1#
0$
0)
1(
#3235
1!
1&
b100 *
b100 %
#3240
0!
0&
0#
1$
1)
0(
#3245
1!
1&
#3250
0!
0&
#3255
1!
1&
#3260
0!
0&
1#
0$
0)
1(
#3265
1!
1&
b11 *
b11 %
#3270
0!
0&
0#
0(
#3275
1!
1&
#3280
0!
0&
1#
1(
#3285
1!
1&
b10 *
b10 %
#3290
0!
0&
1$
1)
#3295
1!
1&
b11 *
b11 %
#3300
0!
0&
0#
0$
0)
0(
#3305
1!
1&
#3310
0!
0&
1$
1)
#3315
1!
1&
#3320
0!
0&
0$
0)
#3325
1!
1&
#3330
0!
0&
1$
1)
#3335
1!
1&
#3340
0!
0&
1#
1(
#3345
1!
1&
b100 *
b100 %
#3350
0!
0&
0#
0$
0)
0(
#3355
1!
1&
#3360
0!
0&
1#
1$
1)
1(
#3365
1!
1&
b101 *
b101 %
#3370
0!
0&
0$
0)
#3375
1!
1&
b100 *
b100 %
#3380
0!
0&
1$
1)
#3385
1!
1&
b101 *
b101 %
#3390
0!
0&
0#
0$
0)
0(
#3395
1!
1&
#3400
0!
0&
1#
1$
1)
1(
#3405
1!
1&
b110 *
b110 %
#3410
0!
0&
0#
0(
#3415
1!
1&
#3420
0!
0&
0$
0)
#3425
1!
1&
#3430
0!
0&
#3435
1!
1&
#3440
0!
0&
1#
1$
1)
1(
#3445
1!
1&
b111 *
b111 %
#3450
0!
0&
0#
0(
#3455
1!
1&
#3460
0!
0&
1#
0$
0)
1(
#3465
1!
1&
b110 *
b110 %
#3470
0!
0&
1$
1)
#3475
1!
1&
b111 *
b111 %
#3480
0!
0&
#3485
1!
1&
b1000 *
b1000 %
#3490
0!
0&
0#
0$
0)
0(
#3495
1!
1&
#3500
0!
0&
1#
1(
#3505
1!
1&
b111 *
b111 %
#3510
0!
0&
0#
0(
#3515
1!
1&
#3520
0!
0&
1#
1(
#3525
1!
1&
b110 *
b110 %
#3530
0!
0&
#3535
1!
1&
b101 *
b101 %
#3540
0!
0&
1$
1)
#3545
1!
1&
b110 *
b110 %
#3550
0!
0&
0#
0(
#3555
1!
1&
#3560
0!
0&
0$
0)
#3565
1!
1&
#3570
0!
0&
1#
1(
#3575
1!
1&
b101 *
b101 %
#3580
0!
0&
1$
1)
#3585
1!
1&
b110 *
b110 %
#3590
0!
0&
0#
0$
0)
0(
#3595
1!
1&
#3600
0!
0&
1#
1(
#3605
1!
1&
b101 *
b101 %
#3610
0!
0&
0#
1$
1)
0(
#3615
1!
1&
#3620
0!
0&
1#
0$
0)
1(
#3625
1!
1&
b100 *
b100 %
#3630
0!
0&
0#
1$
1)
0(
#3635
1!
1&
#3640
0!
0&
1#
0$
0)
1(
#3645
1!
1&
b11 *
b11 %
#3650
0!
0&
0#
1$
1)
0(
#3655
1!
1&
#3660
0!
0&
1#
1(
#3665
1!
1&
b100 *
b100 %
#3670
0!
0&
0#
0$
0)
0(
#3675
1!
1&
#3680
0!
0&
#3685
1!
1&
#3690
0!
0&
1#
1$
1)
1(
#3695
1!
1&
b101 *
b101 %
#3700
0!
0&
#3705
1!
1&
b110 *
b110 %
#3710
0!
0&
0$
0)
#3715
1!
1&
b101 *
b101 %
#3720
0!
0&
1$
1)
#3725
1!
1&
b110 *
b110 %
#3730
0!
0&
#3735
1!
1&
b111 *
b111 %
#3740
0!
0&
#3745
1!
1&
b1000 *
b1000 %
#3750
0!
0&
0#
0(
#3755
1!
1&
#3760
0!
0&
1#
0$
0)
1(
#3765
1!
1&
b111 *
b111 %
#3770
0!
0&
0#
1$
1)
0(
#3775
1!
1&
#3780
0!
0&
1#
1(
#3785
1!
1&
b1000 *
b1000 %
#3790
0!
0&
#3795
1!
1&
b1001 *
b1001 %
#3800
0!
0&
#3805
1!
1&
b1010 *
b1010 %
#3810
0!
0&
#3815
1!
1&
b1011 *
b1011 %
#3820
0!
0&
0#
0(
#3825
1!
1&
#3830
0!
0&
1#
0$
0)
1(
#3835
1!
1&
b1010 *
b1010 %
#3840
0!
0&
0#
1$
1)
0(
#3845
1!
1&
#3850
0!
0&
1#
0$
0)
1(
#3855
1!
1&
b1001 *
b1001 %
#3860
0!
0&
0#
1$
1)
0(
#3865
1!
1&
#3870
0!
0&
1#
0$
0)
1(
#3875
1!
1&
b1000 *
b1000 %
#3880
0!
0&
0#
1$
1)
0(
#3885
1!
1&
#3890
0!
0&
0$
0)
#3895
1!
1&
#3900
0!
0&
#3905
1!
1&
#3910
0!
0&
1$
1)
#3915
1!
1&
#3920
0!
0&
#3925
1!
1&
#3930
0!
0&
0$
0)
#3935
1!
1&
#3940
0!
0&
1$
1)
#3945
1!
1&
#3950
0!
0&
#3955
1!
1&
#3960
0!
0&
0$
0)
#3965
1!
1&
#3970
0!
0&
1#
1(
#3975
1!
1&
b111 *
b111 %
#3980
0!
0&
#3985
1!
1&
b110 *
b110 %
#3990
0!
0&
0#
1$
1)
0(
#3995
1!
1&
#4000
0!
0&
0$
0)
#4005
1!
1&
#4010
0!
0&
1$
1)
#4015
1!
1&
#4020
0!
0&
#4025
1!
1&
#4030
0!
0&
1#
1(
#4035
1!
1&
b111 *
b111 %
#4040
0!
0&
0$
0)
#4045
1!
1&
b110 *
b110 %
#4050
0!
0&
#4055
1!
1&
b101 *
b101 %
#4060
0!
0&
1$
1)
#4065
1!
1&
b110 *
b110 %
#4070
0!
0&
0#
0$
0)
0(
#4075
1!
1&
#4080
0!
0&
1#
1$
1)
1(
#4085
1!
1&
b111 *
b111 %
#4090
0!
0&
0#
0$
0)
0(
#4095
1!
1&
#4100
0!
0&
#4105
1!
1&
#4110
0!
0&
1#
1(
#4115
1!
1&
b110 *
b110 %
#4120
0!
0&
0#
1$
1)
0(
#4125
1!
1&
#4130
0!
0&
1#
0$
0)
1(
#4135
1!
1&
b101 *
b101 %
#4140
0!
0&
#4145
1!
1&
b100 *
b100 %
#4150
0!
0&
#4155
1!
1&
b11 *
b11 %
#4160
0!
0&
0#
1$
1)
0(
#4165
1!
1&
#4170
0!
0&
1#
0$
0)
1(
#4175
1!
1&
b10 *
b10 %
#4180
0!
0&
1$
1)
#4185
1!
1&
b11 *
b11 %
#4190
0!
0&
0#
0(
#4195
1!
1&
#4200
0!
0&
0$
0)
#4205
1!
1&
#4210
0!
0&
1#
1(
#4215
1!
1&
b10 *
b10 %
#4220
0!
0&
#4225
1!
1&
b1 *
b1 %
#4230
0!
0&
1$
1)
#4235
1!
1&
b10 *
b10 %
#4240
0!
0&
0#
0$
0)
0(
#4245
1!
1&
#4250
0!
0&
1#
1$
1)
1(
#4255
1!
1&
b11 *
b11 %
#4260
0!
0&
#4265
1!
1&
b100 *
b100 %
#4270
0!
0&
0#
0(
#4275
1!
1&
#4280
0!
0&
1#
0$
0)
1(
#4285
1!
1&
b11 *
b11 %
#4290
0!
0&
#4295
1!
1&
b10 *
b10 %
#4300
0!
0&
0#
1$
1)
0(
#4305
1!
1&
#4310
0!
0&
0$
0)
#4315
1!
1&
#4320
0!
0&
1#
1$
1)
1(
#4325
1!
1&
b11 *
b11 %
#4330
0!
0&
0$
0)
#4335
1!
1&
b10 *
b10 %
#4340
0!
0&
0#
1$
1)
0(
#4345
1!
1&
#4350
0!
0&
0$
0)
#4355
1!
1&
#4360
0!
0&
#4365
1!
1&
#4370
0!
0&
1#
1$
1)
1(
#4375
1!
1&
b11 *
b11 %
#4380
0!
0&
0$
0)
#4385
1!
1&
b10 *
b10 %
#4390
0!
0&
#4395
1!
1&
b1 *
b1 %
#4400
0!
0&
0#
0(
#4405
1!
1&
#4410
0!
0&
1$
1)
#4415
1!
1&
#4420
0!
0&
#4425
1!
1&
#4430
0!
0&
1#
1(
#4435
1!
1&
b10 *
b10 %
#4440
0!
0&
#4445
1!
1&
b11 *
b11 %
#4450
0!
0&
#4455
1!
1&
b100 *
b100 %
#4460
0!
0&
0#
0$
0)
0(
#4465
1!
1&
#4470
0!
0&
#4475
1!
1&
#4480
0!
0&
1$
1)
#4485
1!
1&
#4490
0!
0&
0$
0)
#4495
1!
1&
#4500
0!
0&
1$
1)
#4505
1!
1&
#4510
0!
0&
1#
0$
0)
1(
#4515
1!
1&
b11 *
b11 %
#4520
0!
0&
1$
1)
#4525
1!
1&
b100 *
b100 %
#4530
0!
0&
0$
0)
#4535
1!
1&
b11 *
b11 %
#4540
0!
0&
#4545
1!
1&
b10 *
b10 %
#4550
0!
0&
0#
1$
1)
0(
#4555
1!
1&
#4560
0!
0&
1#
0$
0)
1(
#4565
1!
1&
b1 *
b1 %
#4570
0!
0&
0#
0(
#4575
1!
1&
#4580
0!
0&
1#
1$
1)
1(
#4585
1!
1&
b10 *
b10 %
#4590
0!
0&
#4595
1!
1&
b11 *
b11 %
#4600
0!
0&
#4605
1!
1&
b100 *
b100 %
#4610
0!
0&
0#
0(
#4615
1!
1&
#4620
0!
0&
#4625
1!
1&
#4630
0!
0&
1#
1(
#4635
1!
1&
b101 *
b101 %
#4640
0!
0&
0#
0(
#4645
1!
1&
#4650
0!
0&
#4655
1!
1&
#4660
0!
0&
1#
1(
#4665
1!
1&
b110 *
b110 %
#4670
0!
0&
#4675
1!
1&
b111 *
b111 %
#4680
0!
0&
